California case study • evprof
…
This case study is based on the open-access data from the California
Technological Institute (Caltech) through the ACN Portal initiative. You
can download the ACN data set, a collection of EV charging sessions
collected at Caltech and NASA’s Jet Propulsion Laboratory (JPL),from the
ACN-Data website. For more
information visit the ACN
documentation.

This data set has been transformed to the standard
data format defined by evprof and provided together
with the package:

sessions <- evprof::california_ev_sessions

## # A tibble: 40,314 × 13
##    Site  Session                  ConnectionStartDateTime ConnectionEndDateTime
##    <chr> <chr>                    <dttm>                  <dttm>               
##  1 jpl   5c36631ef9af8b4639a8e581 2018-10-08 06:01:34     2018-10-08 17:09:54  
##  2 jpl   5c36631ef9af8b4639a8e588 2018-10-08 06:24:48     2018-10-08 17:05:33  
##  3 jpl   5c36631ef9af8b4639a8e58b 2018-10-08 06:34:52     2018-10-08 17:43:48  
##  4 jpl   5c36631ef9af8b4639a8e593 2018-10-08 06:59:16     2018-10-08 17:28:04  
##  5 jpl   5c36631ef9af8b4639a8e595 2018-10-08 07:01:14     2018-10-08 17:18:52  
##  6 jpl   5c36631ef9af8b4639a8e596 2018-10-08 07:06:38     2018-10-08 17:13:03  
##  7 jpl   5c36631ef9af8b4639a8e596 2018-10-08 07:06:38     2018-10-08 17:13:03  
##  8 jpl   5c36631ef9af8b4639a8e596 2018-10-08 07:06:38     2018-10-08 17:13:03  
##  9 jpl   5c36631ef9af8b4639a8e597 2018-10-08 07:07:27     2018-10-08 17:22:00  
## 10 jpl   5c36631ef9af8b4639a8e59c 2018-10-08 07:20:10     2018-10-08 17:36:41  
## # ℹ 40,304 more rows
## # ℹ 9 more variables: ChargingStartDateTime <dttm>, ChargingEndDateTime <dttm>,
## #   Power <dbl>, Energy <dbl>, ConnectionHours <dbl>, ChargingHours <dbl>,
## #   FlexibilityHours <dbl>, ChargingStation <chr>, UserID <chr>
…
